…
    ## # A tibble: 2 × 2
    ##   median_split     n
    ##   <chr>        <int>
    ## 1 Bad Player     851
    ## 2 Good Player    851

``` r
#put the regular season evaluations into the playoff datasets

RAPTOR_median_rs %>%
  arrange(player_id)
```

    ## # A tibble: 1,702 × 25
    ##    player_name  playe…¹ season seaso…² team   poss    mp rapto…³ rapto…⁴ rapto…⁵
    ##    <chr>        <chr>    <dbl> <chr>   <chr> <dbl> <dbl>   <dbl>   <dbl>   <dbl>
    ##  1 Alex Abrines abrina…   2017 RS      OKC    2215  1055   0.771  -0.180   0.591
    ##  2 Alex Abrines abrina…   2018 RS      OKC    2313  1134   0.236  -1.72   -1.48 
    ##  3 Precious Ac… achiup…   2021 RS      MIA    1557   737  -3.88    1.17   -2.70 
    ##  4 Precious Ac… achiup…   2022 RS      TOR    3482  1725  -2.44    2.03   -0.412
    ##  5 Jordan Adams adamsj…   2015 RS      MEM     498   248   1.96   -0.572   1.39 
    ##  6 Steven Adams adamss…   2014 RS      OKC    2420  1197  -1.12    0.765  -0.355
    ##  7 Steven Adams adamss…   2016 RS      OKC    4110  2014   0.800   4.96    5.76 
    ##  8 Steven Adams adamss…   2017 RS      OKC    4950  2389  -2.24    1.67   -0.568
    ##  9 Steven Adams adamss…   2018 RS      OKC    5121  2487   0.509   1.34    1.85 
    ## 10 Steven Adams adamss…   2019 RS      OKC    5830  2669  -0.981   2.02    1.04 
    ## # … with 1,692 more rows, 15 more variables: raptor_onoff_offense <dbl>,
    ## #   raptor_onoff_defense <dbl>, raptor_onoff_total <dbl>, raptor_offense <dbl>,
    ## #   raptor_defense <dbl>, raptor_total <dbl>, war_total <dbl>,
    ## #   war_reg_season <dbl>, war_playoffs <dbl>, predator_offense <dbl>,
    ## #   predator_defense <dbl>, predator_total <dbl>, pace_impact <dbl>,
    ## #   filter_by <dbl>, median_split <chr>, and abbreviated variable names
    ## #   ¹​player_id, ²​season_type, ³​raptor_box_offense, ⁴​raptor_box_defense, …

``` r
RAPTOR_SD_rs %>%
  arrange(player_id)
```

    ## # A tibble: 1,702 × 25
    ##    player_name  playe…¹ season seaso…² team   poss    mp rapto…³ rapto…⁴ rapto…⁵
    ##    <chr>        <chr>    <dbl> <chr>   <chr> <dbl> <dbl>   <dbl>   <dbl>   <dbl>
    ##  1 Alex Abrines abrina…   2017 RS      OKC    2215  1055   0.771  -0.180   0.591
    ##  2 Alex Abrines abrina…   2018 RS      OKC    2313  1134   0.236  -1.72   -1.48 
    ##  3 Precious Ac… achiup…   2021 RS      MIA    1557   737  -3.88    1.17   -2.70 
    ##  4 Precious Ac… achiup…   2022 RS      TOR    3482  1725  -2.44    2.03   -0.412
    ##  5 Jordan Adams adamsj…   2015 RS      MEM     498   248   1.96   -0.572   1.39 
    ##  6 Steven Adams adamss…   2014 RS      OKC    2420  1197  -1.12    0.765  -0.355
    ##  7 Steven Adams adamss…   2016 RS      OKC    4110  2014   0.800   4.96    5.76 
    ##  8 Steven Adams adamss…   2017 RS      OKC    4950  2389  -2.24    1.67   -0.568
    ##  9 Steven Adams adamss…   2018 RS      OKC    5121  2487   0.509   1.34    1.85 
    ## 10 Steven Adams adamss…   2019 RS      OKC    5830  2669  -0.981   2.02    1.04 
    ## # … with 1,692 more rows, 15 more variables: raptor_onoff_offense <dbl>,
    ## #   raptor_onoff_defense <dbl>, raptor_onoff_total <dbl>, raptor_offense <dbl>,
    ## #   raptor_defense <dbl>, raptor_total <dbl>, war_total <dbl>,
    ## #   war_reg_season <dbl>, war_playoffs <dbl>, predator_offense <dbl>,
    ## #   predator_defense <dbl>, predator_total <dbl>, pace_impact <dbl>,
    ## #   filter_by <dbl>, sd_split <chr>, and abbreviated variable names ¹​player_id,
    ## #   ²​season_type, ³​raptor_box_offense, ⁴​raptor_box_defense, ⁵​raptor_box_total
…
